{
  "metadata": {
    "total_records": 247,
    "last_updated": "2025-06-28T12:45:30.123Z",
    "page": 1,
    "page_size": 50,
    "total_pages": 5
  },
  "programs": [
    {
      "id": "prog_001",
      "program_name": "시사기획 창",
      "channel": "KBS1",
      "genre": "시사교양",
      "ki_score": 82.4,
      "viewership_rating": 4.2,
      "air_time": "매주 화요일 22:00",
      "production_cost": "2억 3천만원",
      "target_age": "30-60대",
      "region": "전국",
      "quality_rating": "A+",
      "social_impact_score": 8.7
    },
    {
      "id": "prog_002",
      "program_name": "동물의 왕국",
      "channel": "KBS2",
      "genre": "다큐멘터리",
      "ki_score": 79.8,
      "viewership_rating": 3.1,
      "air_time": "매주 일요일 19:50",
      "production_cost": "1억 8천만원",
      "target_age": "전연령",
      "region": "전국",
      "quality_rating": "A",
      "social_impact_score": 7.9
    },
    {
      "id": "prog_003",
      "program_name": "무한도전 리턴즈",
      "channel": "MBC",
      "genre": "예능",
      "ki_score": 85.6,
      "viewership_rating": 12.3,
      "air_time": "매주 토요일 18:30",
      "production_cost": "4억 5천만원",
      "target_age": "20-40대",
      "region": "전국",
      "quality_rating": "S",
      "social_impact_score": 9.2
    },
    {
      "id": "prog_004",
      "program_name": "한국사 探",
      "channel": "EBS",
      "genre": "교육",
      "ki_score": 88.9,
      "viewership_rating": 2.1,
      "air_time": "매주 수요일 21:00",
      "production_cost": "1억 2천만원",
      "target_age": "10-60대",
      "region": "전국",
      "quality_rating": "S",
      "social_impact_score": 9.5
    },
    {
      "id": "prog_005",
      "program_name": "6시 내고향",
      "channel": "KBS1",
      "genre": "지역정보",
      "ki_score": 76.3,
      "viewership_rating": 8.7,
      "air_time": "매일 18:00",
      "production_cost": "8천만원",
      "target_age": "40-70대",
      "region": "전국(지역별)",
      "quality_rating": "A",
      "social_impact_score": 8.1
    },
    {
      "id": "prog_006",
      "program_name": "슈퍼맨이 돌아왔다",
      "channel": "KBS2",
      "genre": "예능",
      "ki_score": 83.2,
      "viewership_rating": 7.9,
      "air_time": "매주 일요일 17:20",
      "production_cost": "3억 1천만원",
      "target_age": "20-50대",
      "region": "전국",
      "quality_rating": "A+",
      "social_impact_score": 8.4
    },
    {
      "id": "prog_007",
      "program_name": "MBC 뉴스데스크",
      "channel": "MBC",
      "genre": "뉴스",
      "ki_score": 81.7,
      "viewership_rating": 6.4,
      "air_time": "매일 20:00",
      "production_cost": "1억 5천만원",
      "target_age": "30-70대",
      "region": "전국",
      "quality_rating": "A+",
      "social_impact_score": 8.8
    },
    {
      "id": "prog_008",
      "program_name": "과학탐구영역",
      "channel": "EBS",
      "genre": "교육",
      "ki_score": 87.1,
      "viewership_rating": 1.8,
      "air_time": "매주 목요일 20:30",
      "production_cost": "9천만원",
      "target_age": "10-30대",
      "region": "전국",
      "quality_rating": "A+",
      "social_impact_score": 9.1
    },
    {
      "id": "prog_009",
      "program_name": "트롯신이 떴다",
      "channel": "SBS",
      "genre": "음악",
      "ki_score": 78.9,
      "viewership_rating": 9.2,
      "air_time": "매주 일요일 18:00",
      "production_cost": "2억 7천만원",
      "target_age": "40-70대",
      "region": "전국",
      "quality_rating": "A",
      "social_impact_score": 7.6
    },
    {
      "id": "prog_010",
      "program_name": "런닝맨",
      "channel": "SBS",
      "genre": "예능",
      "ki_score": 84.3,
      "viewership_rating": 11.1,
      "air_time": "매주 일요일 17:00",
      "production_cost": "4억 2천만원",
      "target_age": "20-40대",
      "region": "전국",
      "quality_rating": "A+",
      "social_impact_score": 8.7
    },
    {
      "id": "prog_011",
      "program_name": "세계테마기행",
      "channel": "EBS",
      "genre": "다큐멘터리",
      "ki_score": 86.5,
      "viewership_rating": 2.9,
      "air_time": "매주 월-금 20:50",
      "production_cost": "1억 6천만원",
      "target_age": "30-60대",
      "region": "전국",
      "quality_rating": "A+",
      "social_impact_score": 8.3
    },
    {
      "id": "prog_012",
      "program_name": "국악한마당",
      "channel": "KBS1",
      "genre": "음악",
      "ki_score": 80.2,
      "viewership_rating": 2.3,
      "air_time": "매주 토요일 12:10",
      "production_cost": "1억 1천만원",
      "target_age": "50-80대",
      "region": "전국",
      "quality_rating": "A",
      "social_impact_score": 8.9
    },
    {
      "id": "prog_013",
      "program_name": "1박2일 시즌4",
      "channel": "KBS2",
      "genre": "예능",
      "ki_score": 83.7,
      "viewership_rating": 10.4,
      "air_time": "매주 일요일 18:30",
      "production_cost": "3억 8천만원",
      "target_age": "20-50대",
      "region": "전국",
      "quality_rating": "A+",
      "social_impact_score": 8.5
    },
    {
      "id": "prog_014",
      "program_name": "신비한TV 서프라이즈",
      "channel": "MBC",
      "genre": "교양",
      "ki_score": 77.6,
      "viewership_rating": 5.8,
      "air_time": "매주 일요일 18:30",
      "production_cost": "2억 4천만원",
      "target_age": "전연령",
      "region": "전국",
      "quality_rating": "A",
      "social_impact_score": 7.4
    },
    {
      "id": "prog_015",
      "program_name": "미래교실",
      "channel": "EBS",
      "genre": "교육",
      "ki_score": 89.2,
      "viewership_rating": 1.4,
      "air_time": "매주 화요일 19:00",
      "production_cost": "7천만원",
      "target_age": "10-20대",
      "region": "전국",
      "quality_rating": "S",
      "social_impact_score": 9.7
    },
    {
      "id": "prog_016",
      "program_name": "TV동물농장",
      "channel": "SBS",
      "genre": "교양",
      "ki_score": 79.4,
      "viewership_rating": 4.6,
      "air_time": "매주 일요일 09:30",
      "production_cost": "1억 9천만원",
      "target_age": "전연령",
      "region": "전국",
      "quality_rating": "A",
      "social_impact_score": 8.2
    },
    {
      "id": "prog_017",
      "program_name": "아침마당",
      "channel": "KBS1",
      "genre": "생활정보",
      "ki_score": 75.8,
      "viewership_rating": 6.2,
      "air_time": "매일 08:30",
      "production_cost": "1억 3천만원",
      "target_age": "40-70대",
      "region": "전국",
      "quality_rating": "A",
      "social_impact_score": 7.8
    },
    {
      "id": "prog_018",
      "program_name": "전국노래자랑",
      "channel": "KBS1",
      "genre": "음악",
      "ki_score": 78.1,
      "viewership_rating": 8.9,
      "air_time": "매주 일요일 12:10",
      "production_cost": "1억 7천만원",
      "target_age": "40-80대",
      "region": "전국(지역별)",
      "quality_rating": "A",
      "social_impact_score": 8.6
    },
    {
      "id": "prog_019",
      "program_name": "생로병사의 비밀",
      "channel": "KBS1",
      "genre": "의학정보",
      "ki_score": 84.6,
      "viewership_rating": 5.7,
      "air_time": "매주 수요일 22:00",
      "production_cost": "2억 1천만원",
      "target_age": "30-70대",
      "region": "전국",
      "quality_rating": "A+",
      "social_impact_score": 9.3
    },
    {
      "id": "prog_020",
      "program_name": "황금어장 라디오스타",
      "channel": "MBC",
      "genre": "토크쇼",
      "ki_score": 82.9,
      "viewership_rating": 7.3,
      "air_time": "매주 수요일 22:30",
      "production_cost": "2억 8천만원",
      "target_age": "20-50대",
      "region": "전국",
      "quality_rating": "A+",
      "social_impact_score": 8.1
    }
  ],
  "statistics": {
    "by_genre": {
      "예능": { "count": 6, "avg_ki_score": 83.3, "avg_viewership": 9.2 },
      "교육": { "count": 4, "avg_ki_score": 88.6, "avg_viewership": 1.8 },
      "다큐멘터리": { "count": 2, "avg_ki_score": 83.2, "avg_viewership": 3.0 },
      "뉴스": { "count": 1, "avg_ki_score": 81.7, "avg_viewership": 6.4 },
      "음악": { "count": 3, "avg_ki_score": 79.1, "avg_viewership": 6.8 },
      "교양": { "count": 3, "avg_ki_score": 80.5, "avg_viewership": 5.1 },
      "기타": { "count": 1, "avg_ki_score": 75.8, "avg_viewership": 6.2 }
    },
    "by_channel": {
      "KBS1": { "count": 7, "avg_ki_score": 79.8, "avg_viewership": 6.1 },
      "KBS2": { "count": 4, "avg_ki_score": 82.7, "avg_viewership": 7.9 },
      "MBC": { "count": 4, "avg_ki_score": 81.8, "avg_viewership": 7.2 },
      "SBS": { "count": 3, "avg_ki_score": 80.9, "avg_viewership": 8.3 },
      "EBS": { "count": 5, "avg_ki_score": 87.5, "avg_viewership": 2.2 }
    },
    "quality_distribution": {
      "S급": 4,
      "A+급": 9,
      "A급": 7
    }
  }
}